src/tests/fixtures/simple.vcd
$date
   Mon Jan 13 16:00:00 2026
$end
$version
   Swell Test VCD 1.0
$end
$timescale
   1ns
$end
$scope module top $end
$var wire 1 ! clk $end
$var wire 8 " counter [7:0] $end
$var wire 1 # reset $end
$upscope $end
$enddefinitions $end
#0
$dumpvars
0!
b00000000 "
1#
$end
#10
1!
b00000001 "
#20
0!
b00000010 "
#30
1!
b00000011 "
0#
#40
0!
b00000100 "
#50
1!
b00000101 "
#60
0!
b00000110 "
#70
1!
b00000111 "
#80
0!
b00001000 "
#90
1!
b00001001 "
#100
0!
b00001010 "
