tests/fixtures/simple.vcd
$date
    Date text.
$end
$version
    VCD generator tool version info text.
$end
$comment
    Any comment text.
$end
$timescale 1ns $end
$scope module testbench $end
$var wire 1 ! clk $end
$var wire 8 " counter [7:0] $end
$var wire 4 # data [3:0] $end
$upscope $end
$enddefinitions $end
$dumpvars
0!
b00000000 "
b0000 #
$end
#0
0!
b00000000 "
b0000 #
#5
1!
b00000001 "
b0001 #
#10
0!
b00000010 "
b0010 #
#15
1!
b00000011 "
b0011 #
#20
0!
b00000100 "
b0100 #
#25
1!
b00000101 "
b0101 #
#30
0!
b00000110 "
b0110 #
#35
1!
b00000111 "
b0111 #
#40
0!
b00001000 "
b1000 #
#45
1!
b00001001 "
b1001 #
#50
0!
b00001010 "
b1010 #
#55
1!
b00001011 "
b1011 #
#60
0!
b00001100 "
b1100 #
#65
1!
b00001101 "
b1101 #
#70
0!
b00001110 "
b1110 #
#75
1!
b00001111 "
b1111 #
